Datathon 2020
…
# We'll create a flag for these locations and potentially exclude later on
data_cgf_loc <- data_cgf_loc %>% 
  mutate(zero_unemp = ifelse(location %in% zeros$location, 1, 0))

At the peak of unemployment rates (for each location), which locations had the highest absolute unemployment rates? Highest increase in unemployment (over different time horizons)?

# Highest unemployment at peak
data_cgf_loc %>% 
  filter(worst_month == 1, YEAR == 2020, !is.na(avg6), zero_unemp == 0) %>% 
  select(MONTH, location, unemp_rt, avg3, avg6, diff1, diff3, diff6, diff12) %>% 
  arrange(desc(unemp_rt))

## # A tibble: 177 x 9
## # Groups:   location [177]
##       MONTH location           unemp_rt  avg3   avg6  diff1  diff3  diff6 diff12
##    <int+lb> <chr>                 <dbl> <dbl>  <dbl>  <dbl>  <dbl>  <dbl>  <dbl>
##  1 5 [May]  Muskegon-Norton S~    0.502 0.382 0.197  0.167  0.369  0.294  0.286 
##  2 8 [Augu~ Atlantic City-Ham~    0.461 0.447 0.294  0.104  0.307  0.406  0.437 
##  3 6 [June] Kahului-Wailuku-L~    0.352 0.407 0.213  0.114  0.388  0.379  0.402 
##  4 8 [Augu~ Philadelphia-Camd~    0.347 0.189 0.144  0.0722 0.0887 0.0661 0.0981
##  5 6 [June] Chico, CA             0.302 0.228 0.166  0.0540 0.125  0.173  0.127 
##  6 5 [May]  Chicago-Napervill~    0.262 0.186 0.169  0.0110 0.0326 0.137  0.146 
##  7 6 [June] Boulder, CO           0.236 0.178 0.0982 0.0711 0.159  0.170  0.159 
##  8 6 [June] Battle Creek, MI      0.229 0.240 0.126  0.0764 0.227  0.196  0.152 
##  9 4 [Apri~ Monroe, LA            0.226 0.147 0.101  0.0316 0.0913 0.0818 0.101 
## 10 8 [Augu~ Modesto, CA           0.217 0.162 0.144  0.0268 0.0356 0.0999 0.106 
## # ... with 167 more rows

# Highest 3 month increase in unemployment at peak
data_cgf_loc %>% 
  filter(worst_month == 1, YEAR == 2020, !is.na(avg6), zero_unemp == 0) %>% 
  select(MONTH, location, unemp_rt, avg3, avg6, diff1, diff3, diff6, diff12) %>% 
  arrange(desc(diff3))

## # A tibble: 177 x 9
## # Groups:   location [177]
##        MONTH location             unemp_rt  avg3  avg6  diff1 diff3 diff6 diff12
##    <int+lbl> <chr>                   <dbl> <dbl> <dbl>  <dbl> <dbl> <dbl>  <dbl>
##  1 6 [June]  Kahului-Wailuku-Lah~    0.352 0.407 0.213 0.114  0.388 0.379  0.402
##  2 5 [May]   Muskegon-Norton Sho~    0.502 0.382 0.197 0.167  0.369 0.294  0.286
##  3 8 [Augus~ Atlantic City-Hammo~    0.461 0.447 0.294 0.104  0.307 0.406  0.437
##  4 6 [June]  Las Vegas-Paradise,~    0.190 0.276 0.162 0.0405 0.228 0.243  0.223
##  5 6 [June]  Battle Creek, MI        0.229 0.240 0.126 0.0764 0.227 0.196  0.152
##  6 6 [June]  Flint, MI               0.173 0.236 0.124 0.0577 0.225 0.183  0.225
##  7 6 [June]  Prescott, AZ            0.201 0.242 0.137 0.0531 0.211 0.223  0.203
##  8 6 [June]  Detroit-Warren-Dear~    0.181 0.222 0.132 0.0419 0.181 0.191  0.185
##  9 6 [June]  Rockford, IL            0.187 0.188 0.103 0.0622 0.172 0.170  0.158
## 10 5 [May]   Boston-Cambridge-Ne~    0.161 0.193 0.109 0.0474 0.167 0.163  0.176
## # ... with 167 more rows

# Highest 12 month increase in unemployment at peak
data_cgf_loc %>% 
  filter(worst_month == 1, YEAR == 2020, !is.na(avg6), zero_unemp == 0) %>% 
  select(MONTH, location, unemp_rt, avg3, avg6, diff1, diff3, diff6, diff12) %>% 
  arrange(desc(diff12))

## # A tibble: 177 x 9
## # Groups:   location [177]
##        MONTH location             unemp_rt  avg3  avg6  diff1 diff3 diff6 diff12
##    <int+lbl> <chr>                   <dbl> <dbl> <dbl>  <dbl> <dbl> <dbl>  <dbl>
##  1 8 [Augus~ Atlantic City-Hammo~    0.461 0.447 0.294 0.104  0.307 0.406  0.437
##  2 6 [June]  Kahului-Wailuku-Lah~    0.352 0.407 0.213 0.114  0.388 0.379  0.402
##  3 5 [May]   Muskegon-Norton Sho~    0.502 0.382 0.197 0.167  0.369 0.294  0.286
##  4 6 [June]  Flint, MI               0.173 0.236 0.124 0.0577 0.225 0.183  0.225
##  5 6 [June]  Las Vegas-Paradise,~    0.190 0.276 0.162 0.0405 0.228 0.243  0.223
##  6 6 [June]  Prescott, AZ            0.201 0.242 0.137 0.0531 0.211 0.223  0.203
##  7 6 [June]  York-Hanover, PA        0.216 0.212 0.144 0.0478 0.136 0.206  0.190
##  8 6 [June]  Detroit-Warren-Dear~    0.181 0.222 0.132 0.0419 0.181 0.191  0.185
##  9 5 [May]   Boston-Cambridge-Ne~    0.161 0.193 0.109 0.0474 0.167 0.163  0.176
## 10 6 [June]  Gainesville, FL         0.150 0.190 0.114 0.0338 0.151 0.154  0.175
## # ... with 167 more rows

Looking at September 2020 data, which locations are not doing significantly worse (or even better) on unemployment rate, relative to 12 months prior?

data_cgf_loc %>% 
  filter(YEAR == 2020, MONTH == 9, zero_unemp == 0) %>% 
  select(MONTH, location, unemp_rt, avg3, avg6, diff1, diff3, diff6, diff12) %>% 
  arrange(diff12)

## # A tibble: 213 x 9
## # Groups:   location [191]
##       MONTH location   unemp_rt   avg3   avg6    diff1    diff3    diff6  diff12
##    <int+lb> <chr>         <dbl>  <dbl>  <dbl>    <dbl>    <dbl>    <dbl>   <dbl>
##  1 9 [Sept~ Chicago-N~   0.0603 0.0827 0.0998 -1.21e-2 -0.0343  -0.0488  -0.0972
##  2 9 [Sept~ Fayettevi~   0.0773 0.0258 0.104   1.63e-2 -0.157   -0.0389  -0.0963
##  3 9 [Sept~ Chicago-N~   0.0896 0.0948 0.100  -2.07e-2 -0.0107  -0.0619  -0.0910
##  4 9 [Sept~ Muskegon-~   0.0415 0.0528 0.215  -2.22e-2 -0.325    0.0129  -0.0742
##  5 9 [Sept~ Chicago-N~   0.0983 0.115  0.122  -1.51e-3 -0.0122  -0.0479  -0.0593
##  6 9 [Sept~ Salisbury~   0.0706 0.0487 0.0499 -3.52e-4 -0.00242 -0.0180  -0.0570
##  7 9 [Sept~ Philadelp~   0.0450 0.0739 0.129  -2.72e-2 -0.111   -0.0424  -0.0532
##  8 9 [Sept~ Champaign~   0.0541 0.0315 0.0344  1.80e-2 -0.00585  0.00479 -0.0404
##  9 9 [Sept~ Philadelp~   0.0902 0.0831 0.0865  9.18e-3 -0.00674 -0.105   -0.0393
## 10 9 [Sept~ Colorado ~   0.0150 0.0314 0.0777 -3.24e-2 -0.0926  -0.0114  -0.0364
## # ... with 203 more rows
…
